[
  {
    "id": "ee789bc0-9a77-4af5-b264-ab7779bd5231",
    "enc": "J4fdOVQ3ZvaAspCs474jSQ==",
    "algo": "AES",
    "ksize": 256
  },
  {
    "id": "2134cad1-2ef5-449c-b66c-ca05e7ba3caa",
    "enc": "Mxq+gjOZ9OWhe8zOjy27Pw==",
    "algo": "AES",
    "ksize": 256
  },
  {
    "id": "f2cd9512-f45e-4ef2-980c-fa220d716a29",
    "enc": "nIpyUEgD7MM6rzVG1ipV1g==",
    "algo": "AES",
    "ksize": 256
  }
]
